<svg width="44" height="8" viewBox="0 0 44 8" fill="none" xmlns="http://www.w3.org/2000/svg">
<path d="M0 4H40" stroke="url(#paint0_linear)" stroke-width="2"/>
<circle cx="40" cy="4" r="4" fill="white"/>
<defs>
<linearGradient id="paint0_linear" x1="40" y1="4" x2="0" y2="4" gradientUnits="userSpaceOnUse">
<stop stop-color="white"/>
<stop offset="1" stop-color="white" stop-opacity="0"/>
</linearGradient>
</defs>
</svg>
